<?xml version="1.0" encoding="UTF-8" standalone="no"?>
<!-- Created with Inkscape (http://www.inkscape.org/) -->
<svg xmlns:inkscape="http://www.inkscape.org/namespaces/inkscape" xmlns:rdf="http://www.w3.org/1999/02/22-rdf-syntax-ns#" xmlns="http://www.w3.org/2000/svg" xmlns:sodipodi="http://sodipodi.sourceforge.net/DTD/sodipodi-0.dtd" xmlns:cc="http://creativecommons.org/ns#" xmlns:xlink="http://www.w3.org/1999/xlink" xmlns:dc="http://purl.org/dc/elements/1.1/" xmlns:svg="http://www.w3.org/2000/svg" xmlns:ns1="http://sozi.baierouge.fr" id="svg2" sodipodi:docname="Arnoud999_Right_or_wrong_5_green_tick.svg" viewBox="0 0 122.1 154.2" sodipodi:version="0.32" version="1.0" inkscape:output_extension="org.inkscape.output.svg.inkscape" inkscape:version="0.45.1+0.46pre1+devel" sodipodi:docbase="C:\Documents and Settings\Arnoud Plantinga\My Documents\Inkscape probeersels">
  <sodipodi:namedview id="base" bordercolor="#666666" inkscape:pageshadow="2" guidetolerance="10.0" pagecolor="#ffffff" gridtolerance="10.0" inkscape:zoom="0.50663025" objecttolerance="10.0" borderopacity="1.0" inkscape:current-layer="svg2" inkscape:cx="316.0069" inkscape:guide-bbox="true" inkscape:cy="444.98343" inkscape:window-y="0" inkscape:window-x="66" inkscape:window-height="774" showgrid="false" inkscape:pageopacity="0.0" inkscape:window-width="1198" showguides="true"/>
  <path id="path2159" sodipodi:nodetypes="ccccscc" style="fill-rule:evenodd;fill:#00ff00" d="m25.385 82.875l9.46 30.255 63.691-109.92 23.564-3.21c-28.419 40.653-54.62 88.637-77.837 135.38-20.379 41.04-19.225 8.94-44.263-38.435l25.385-14.07z"/>
  <metadata>
    <rdf:RDF>
      <cc:Work>
        <dc:format>image/svg+xml</dc:format>
        <dc:type rdf:resource="http://purl.org/dc/dcmitype/StillImage"/>
        <cc:license rdf:resource="http://creativecommons.org/licenses/publicdomain/"/>
        <dc:publisher>
          <cc:Agent rdf:about="http://openclipart.org/">
            <dc:title>Openclipart</dc:title>
          </cc:Agent>
        </dc:publisher>
        <dc:title>Right or wrong 4</dc:title>
        <dc:date>2006-12-26T00:00:00</dc:date>
        <dc:description/>
        <dc:source>https://openclipart.org/detail/15814/-by--15814</dc:source>
        <dc:creator>
          <cc:Agent>
            <dc:title>Arnoud999</dc:title>
          </cc:Agent>
        </dc:creator>
      </cc:Work>
      <cc:License rdf:about="http://creativecommons.org/licenses/publicdomain/">
        <cc:permits rdf:resource="http://creativecommons.org/ns#Reproduction"/>
        <cc:permits rdf:resource="http://creativecommons.org/ns#Distribution"/>
        <cc:permits rdf:resource="http://creativecommons.org/ns#DerivativeWorks"/>
      </cc:License>
    </rdf:RDF>
  </metadata>
</svg>